{
  "project_info": {
    "project_number": "402294220615",
    "firebase_url": "https://soleekworld.firebaseio.com",
    "project_id": "soleekworld",
    "storage_bucket": "soleekworld.appspot.com"
  },
  "client": [
    {
      "client_info": {
        "mobilesdk_app_id": "1:402294220615:android:e1023aac93d502d4",
        "android_client_info": {
          "package_name": "com.example.soleek_world"
        }
      },
      "oauth_client": [
        {
          "client_id": "402294220615-bvdki0qllqil3auelussfrf853b1arvu.apps.googleusercontent.com",
          "client_type": 1,
          "android_info": {
            "package_name": "com.example.soleek_world",
            "certificate_hash": "866cc78af84abe147ef023e28d0ee4d0c40b7b73"
          }
        },
        {
          "client_id": "402294220615-rm5kocbvms8u3fk79iju7m6ua0cc93iv.apps.googleusercontent.com",
          "client_type": 3
        }
      ],
      "api_key": [
        {
          "current_key": "AIzaSyCmu-Q5OOnzpqD1S01fz4cbj0BkBhMI4JE"
        }
      ],
      "services": {
        "appinvite_service": {
          "other_platform_oauth_client": [
            {
              "client_id": "402294220615-rm5kocbvms8u3fk79iju7m6ua0cc93iv.apps.googleusercontent.com",
              "client_type": 3
            }
          ]
        }
      }
    }
  ],
  "configuration_version": "1"
}